mc20_13TeV.345120.PowhegPy8EG_NNLOPS_nnlo_30_ggH125_tautaul13l7.deriv.DAOD_PHYSLITE.e5814_s3681_r13144_p6266
mc20_13TeV.345120.PowhegPy8EG_NNLOPS_nnlo_30_ggH125_tautaul13l7.deriv.DAOD_PHYSLITE.e5814_s3681_r13145_p6266
mc20_13TeV.345120.PowhegPy8EG_NNLOPS_nnlo_30_ggH125_tautaul13l7.deriv.DAOD_PHYSLITE.e5814_s3681_r13167_p6266
mc20_13TeV.345121.PowhegPy8EG_NNLOPS_nnlo_30_ggH125_tautaulm15hp20.deriv.DAOD_PHYSLITE.e5814_s3681_r13144_p6266
mc20_13TeV.345121.PowhegPy8EG_NNLOPS_nnlo_30_ggH125_tautaulm15hp20.deriv.DAOD_PHYSLITE.e5814_s3681_r13145_p6266
mc20_13TeV.345121.PowhegPy8EG_NNLOPS_nnlo_30_ggH125_tautaulm15hp20.deriv.DAOD_PHYSLITE.e5814_s3681_r13167_p6266
mc20_13TeV.345122.PowhegPy8EG_NNLOPS_nnlo_30_ggH125_tautaulp15hm20.deriv.DAOD_PHYSLITE.e5814_s3681_r13144_p6266
mc20_13TeV.345122.PowhegPy8EG_NNLOPS_nnlo_30_ggH125_tautaulp15hm20.deriv.DAOD_PHYSLITE.e5814_s3681_r13145_p6266
mc20_13TeV.345122.PowhegPy8EG_NNLOPS_nnlo_30_ggH125_tautaulp15hm20.deriv.DAOD_PHYSLITE.e5814_s3681_r13167_p6266
mc20_13TeV.345123.PowhegPy8EG_NNLOPS_nnlo_30_ggH125_tautauh30h20.deriv.DAOD_PHYSLITE.e5814_s3681_r13144_p6266
mc20_13TeV.345123.PowhegPy8EG_NNLOPS_nnlo_30_ggH125_tautauh30h20.deriv.DAOD_PHYSLITE.e5814_s3681_r13145_p6266
mc20_13TeV.345123.PowhegPy8EG_NNLOPS_nnlo_30_ggH125_tautauh30h20.deriv.DAOD_PHYSLITE.e5814_s3681_r13167_p6266
mc20_13TeV.345124.PowhegPy8EG_NNLOPS_nnlo_30_ggH125_etau_filt.deriv.DAOD_PHYSLITE.e5814_s3681_r13144_p6266
mc20_13TeV.345124.PowhegPy8EG_NNLOPS_nnlo_30_ggH125_etau_filt.deriv.DAOD_PHYSLITE.e5814_s3681_r13145_p6266
mc20_13TeV.345124.PowhegPy8EG_NNLOPS_nnlo_30_ggH125_etau_filt.deriv.DAOD_PHYSLITE.e5814_s3681_r13167_p6266
mc20_13TeV.345125.PowhegPy8EG_NNLOPS_nnlo_30_ggH125_mutau_filt.deriv.DAOD_PHYSLITE.e5814_s3681_r13144_p6266
mc20_13TeV.345125.PowhegPy8EG_NNLOPS_nnlo_30_ggH125_mutau_filt.deriv.DAOD_PHYSLITE.e5814_s3681_r13145_p6266
mc20_13TeV.345125.PowhegPy8EG_NNLOPS_nnlo_30_ggH125_mutau_filt.deriv.DAOD_PHYSLITE.e5814_s3681_r13167_p6266
mc20_13TeV.345324.PowhegPythia8EvtGen_NNLOPS_NN30_ggH125_WWlvlv_EF_15_5.deriv.DAOD_PHYSLITE.e5769_s3681_r13144_p6266
mc20_13TeV.345324.PowhegPythia8EvtGen_NNLOPS_NN30_ggH125_WWlvlv_EF_15_5.deriv.DAOD_PHYSLITE.e5769_s3681_r13145_p6266
mc20_13TeV.345324.PowhegPythia8EvtGen_NNLOPS_NN30_ggH125_WWlvlv_EF_15_5.deriv.DAOD_PHYSLITE.e5769_s3681_r13167_p6266
mc20_13TeV.345053.PowhegPythia8EvtGen_NNPDF3_AZNLO_WmH125J_MINLO_lvbb_VpT.deriv.DAOD_PHYSLITE.e5706_s3681_r13144_p6266
mc20_13TeV.345053.PowhegPythia8EvtGen_NNPDF3_AZNLO_WmH125J_MINLO_lvbb_VpT.deriv.DAOD_PHYSLITE.e5706_s3681_r13145_p6266
mc20_13TeV.345053.PowhegPythia8EvtGen_NNPDF3_AZNLO_WmH125J_MINLO_lvbb_VpT.deriv.DAOD_PHYSLITE.e5706_s3681_r13167_p6266
mc20_13TeV.345054.PowhegPythia8EvtGen_NNPDF3_AZNLO_WpH125J_MINLO_lvbb_VpT.deriv.DAOD_PHYSLITE.e5706_s3681_r13144_p6266
mc20_13TeV.345054.PowhegPythia8EvtGen_NNPDF3_AZNLO_WpH125J_MINLO_lvbb_VpT.deriv.DAOD_PHYSLITE.e5706_s3681_r13145_p6266
mc20_13TeV.345054.PowhegPythia8EvtGen_NNPDF3_AZNLO_WpH125J_MINLO_lvbb_VpT.deriv.DAOD_PHYSLITE.e5706_s3681_r13167_p6266
mc20_13TeV.345055.PowhegPythia8EvtGen_NNPDF3_AZNLO_ZH125J_MINLO_llbb_VpT.deriv.DAOD_PHYSLITE.e5706_s3681_r13144_p6266
mc20_13TeV.345055.PowhegPythia8EvtGen_NNPDF3_AZNLO_ZH125J_MINLO_llbb_VpT.deriv.DAOD_PHYSLITE.e5706_s3681_r13145_p6266
mc20_13TeV.345055.PowhegPythia8EvtGen_NNPDF3_AZNLO_ZH125J_MINLO_llbb_VpT.deriv.DAOD_PHYSLITE.e5706_s3681_r13167_p6266
mc20_13TeV.345056.PowhegPythia8EvtGen_NNPDF3_AZNLO_ZH125J_MINLO_vvbb_VpT.deriv.DAOD_PHYSLITE.e5706_s3681_r13144_p6266
mc20_13TeV.345056.PowhegPythia8EvtGen_NNPDF3_AZNLO_ZH125J_MINLO_vvbb_VpT.deriv.DAOD_PHYSLITE.e5706_s3681_r13145_p6266
mc20_13TeV.345056.PowhegPythia8EvtGen_NNPDF3_AZNLO_ZH125J_MINLO_vvbb_VpT.deriv.DAOD_PHYSLITE.e5706_s3681_r13167_p6266
mc20_13TeV.345057.PowhegPythia8EvtGen_NNPDF3_AZNLO_ggZH125_llbb.deriv.DAOD_PHYSLITE.e5706_s3681_r13144_p6266
mc20_13TeV.345057.PowhegPythia8EvtGen_NNPDF3_AZNLO_ggZH125_llbb.deriv.DAOD_PHYSLITE.e5706_s3681_r13145_p6266
mc20_13TeV.345057.PowhegPythia8EvtGen_NNPDF3_AZNLO_ggZH125_llbb.deriv.DAOD_PHYSLITE.e5706_s3681_r13167_p6266
mc20_13TeV.346190.PowhegPy8EG_NNPDF30_AZNLOCTEQ6L1_VBFH125_tautaul13l7.deriv.DAOD_PHYSLITE.e7259_s3681_r13144_p6266
mc20_13TeV.346190.PowhegPy8EG_NNPDF30_AZNLOCTEQ6L1_VBFH125_tautaul13l7.deriv.DAOD_PHYSLITE.e7259_s3681_r13145_p6266
mc20_13TeV.346190.PowhegPy8EG_NNPDF30_AZNLOCTEQ6L1_VBFH125_tautaul13l7.deriv.DAOD_PHYSLITE.e7259_s3681_r13167_p6266
mc20_13TeV.346191.PowhegPy8EG_NNPDF30_AZNLOCTEQ6L1_VBFH125_tautaulm15hp20.deriv.DAOD_PHYSLITE.e7259_s3681_r13144_p6266
mc20_13TeV.346191.PowhegPy8EG_NNPDF30_AZNLOCTEQ6L1_VBFH125_tautaulm15hp20.deriv.DAOD_PHYSLITE.e7259_s3681_r13145_p6266
mc20_13TeV.346191.PowhegPy8EG_NNPDF30_AZNLOCTEQ6L1_VBFH125_tautaulm15hp20.deriv.DAOD_PHYSLITE.e7259_s3681_r13167_p6266
mc20_13TeV.346192.PowhegPy8EG_NNPDF30_AZNLOCTEQ6L1_VBFH125_tautaulp15hm20.deriv.DAOD_PHYSLITE.e7259_s3681_r13144_p6266
mc20_13TeV.346192.PowhegPy8EG_NNPDF30_AZNLOCTEQ6L1_VBFH125_tautaulp15hm20.deriv.DAOD_PHYSLITE.e7259_s3681_r13145_p6266
mc20_13TeV.346192.PowhegPy8EG_NNPDF30_AZNLOCTEQ6L1_VBFH125_tautaulp15hm20.deriv.DAOD_PHYSLITE.e7259_s3681_r13167_p6266
mc20_13TeV.346193.PowhegPy8EG_NNPDF30_AZNLOCTEQ6L1_VBFH125_tautauh30h20.deriv.DAOD_PHYSLITE.e7259_s3681_r13144_p6266
mc20_13TeV.346193.PowhegPy8EG_NNPDF30_AZNLOCTEQ6L1_VBFH125_tautauh30h20.deriv.DAOD_PHYSLITE.e7259_s3681_r13145_p6266
mc20_13TeV.346193.PowhegPy8EG_NNPDF30_AZNLOCTEQ6L1_VBFH125_tautauh30h20.deriv.DAOD_PHYSLITE.e7259_s3681_r13167_p6266
mc20_13TeV.346194.PowhegPy8EG_NNPDF30_AZNLOCTEQ6L1_VBFH125_etau_filt.deriv.DAOD_PHYSLITE.e7259_s3681_r13144_p6266
mc20_13TeV.346194.PowhegPy8EG_NNPDF30_AZNLOCTEQ6L1_VBFH125_etau_filt.deriv.DAOD_PHYSLITE.e7259_s3681_r13145_p6266
mc20_13TeV.346194.PowhegPy8EG_NNPDF30_AZNLOCTEQ6L1_VBFH125_etau_filt.deriv.DAOD_PHYSLITE.e7259_s3681_r13167_p6266
mc20_13TeV.346195.PowhegPy8EG_NNPDF30_AZNLOCTEQ6L1_VBFH125_mutau_filt.deriv.DAOD_PHYSLITE.e7259_s3681_r13144_p6266
mc20_13TeV.346195.PowhegPy8EG_NNPDF30_AZNLOCTEQ6L1_VBFH125_mutau_filt.deriv.DAOD_PHYSLITE.e7259_s3681_r13145_p6266
mc20_13TeV.346195.PowhegPy8EG_NNPDF30_AZNLOCTEQ6L1_VBFH125_mutau_filt.deriv.DAOD_PHYSLITE.e7259_s3681_r13167_p6266
mc20_13TeV.345325.PowhegPythia8EvtGen_NNPDF3_AZNLO_WpH125J_MINLO_qqWWlvlv.deriv.DAOD_PHYSLITE.e5811_s3681_r13144_p6266
mc20_13TeV.345325.PowhegPythia8EvtGen_NNPDF3_AZNLO_WpH125J_MINLO_qqWWlvlv.deriv.DAOD_PHYSLITE.e5811_s3681_r13145_p6266
mc20_13TeV.345325.PowhegPythia8EvtGen_NNPDF3_AZNLO_WpH125J_MINLO_qqWWlvlv.deriv.DAOD_PHYSLITE.e5811_s3681_r13167_p6266
mc20_13TeV.345326.PowhegPythia8EvtGen_NNPDF3_AZNLO_WmH125J_MINLO_lvWWlvlv.deriv.DAOD_PHYSLITE.e5823_s3681_r13144_p6266
mc20_13TeV.345326.PowhegPythia8EvtGen_NNPDF3_AZNLO_WmH125J_MINLO_lvWWlvlv.deriv.DAOD_PHYSLITE.e5823_s3681_r13145_p6266
mc20_13TeV.345326.PowhegPythia8EvtGen_NNPDF3_AZNLO_WmH125J_MINLO_lvWWlvlv.deriv.DAOD_PHYSLITE.e5823_s3681_r13167_p6266
mc20_13TeV.345948.PowhegPy8EG_NNPDF30_AZNLOCTEQ6L1_VBFH125_WWlvlv.deriv.DAOD_PHYSLITE.e7172_s3681_r13144_p6266
mc20_13TeV.345948.PowhegPy8EG_NNPDF30_AZNLOCTEQ6L1_VBFH125_WWlvlv.deriv.DAOD_PHYSLITE.e7172_s3681_r13145_p6266
mc20_13TeV.345948.PowhegPy8EG_NNPDF30_AZNLOCTEQ6L1_VBFH125_WWlvlv.deriv.DAOD_PHYSLITE.e7172_s3681_r13167_p6266
mc20_13TeV.345211.PowhegPy8EG_NNPDF30_AZNLO_WmH125J_Winc_MINLO_tautau.deriv.DAOD_PHYSLITE.e5808_s3681_r13144_p6266
mc20_13TeV.345211.PowhegPy8EG_NNPDF30_AZNLO_WmH125J_Winc_MINLO_tautau.deriv.DAOD_PHYSLITE.e5808_s3681_r13145_p6266
mc20_13TeV.345211.PowhegPy8EG_NNPDF30_AZNLO_WmH125J_Winc_MINLO_tautau.deriv.DAOD_PHYSLITE.e5808_s3681_r13167_p6266
mc20_13TeV.345212.PowhegPy8EG_NNPDF30_AZNLO_WpH125J_Winc_MINLO_tautau.deriv.DAOD_PHYSLITE.e5808_s3681_r13144_p6266
mc20_13TeV.345212.PowhegPy8EG_NNPDF30_AZNLO_WpH125J_Winc_MINLO_tautau.deriv.DAOD_PHYSLITE.e5808_s3681_r13145_p6266
mc20_13TeV.345212.PowhegPy8EG_NNPDF30_AZNLO_WpH125J_Winc_MINLO_tautau.deriv.DAOD_PHYSLITE.e5808_s3681_r13167_p6266
mc20_13TeV.346561.PowhegPythia8EvtGen_NNPDF3_AZNLO_WpH125J_MINLO_lvWWlvqq.deriv.DAOD_PHYSLITE.e7552_s3681_r13144_p6266
mc20_13TeV.346561.PowhegPythia8EvtGen_NNPDF3_AZNLO_WpH125J_MINLO_lvWWlvqq.deriv.DAOD_PHYSLITE.e7552_s3681_r13145_p6266
mc20_13TeV.346561.PowhegPythia8EvtGen_NNPDF3_AZNLO_WpH125J_MINLO_lvWWlvqq.deriv.DAOD_PHYSLITE.e7552_s3681_r13167_p6266
mc20_13TeV.345433.PowhegPythia8EvtGen_NNPDF3_AZNLO_WmH125J_MINLO_qqWWlvlv.deriv.DAOD_PHYSLITE.e5811_s3681_r13144_p6266
mc20_13TeV.345433.PowhegPythia8EvtGen_NNPDF3_AZNLO_WmH125J_MINLO_qqWWlvlv.deriv.DAOD_PHYSLITE.e5811_s3681_r13145_p6266
mc20_13TeV.345433.PowhegPythia8EvtGen_NNPDF3_AZNLO_WmH125J_MINLO_qqWWlvlv.deriv.DAOD_PHYSLITE.e5811_s3681_r13167_p6266
mc20_13TeV.346560.PowhegPythia8EvtGen_NNPDF3_AZNLO_WmH125J_MINLO_lvWWlvqq.deriv.DAOD_PHYSLITE.e7552_s3681_r13144_p6266
mc20_13TeV.346560.PowhegPythia8EvtGen_NNPDF3_AZNLO_WmH125J_MINLO_lvWWlvqq.deriv.DAOD_PHYSLITE.e7552_s3681_r13145_p6266
mc20_13TeV.346560.PowhegPythia8EvtGen_NNPDF3_AZNLO_WmH125J_MINLO_lvWWlvqq.deriv.DAOD_PHYSLITE.e7552_s3681_r13167_p6266
mc20_13TeV.345217.PowhegPy8EG_NNPDF30_AZNLO_ZH125J_Zinc_MINLO_tautau.deriv.DAOD_PHYSLITE.e5808_s3681_r13144_p6266
mc20_13TeV.345217.PowhegPy8EG_NNPDF30_AZNLO_ZH125J_Zinc_MINLO_tautau.deriv.DAOD_PHYSLITE.e5808_s3681_r13145_p6266
mc20_13TeV.345217.PowhegPy8EG_NNPDF30_AZNLO_ZH125J_Zinc_MINLO_tautau.deriv.DAOD_PHYSLITE.e5808_s3681_r13167_p6266
mc20_13TeV.345336.PowhegPythia8EvtGen_NNPDF3_AZNLO_ZH125J_MINLO_qqWWlvlv.deriv.DAOD_PHYSLITE.e5813_s3681_r13144_p6266
mc20_13TeV.345336.PowhegPythia8EvtGen_NNPDF3_AZNLO_ZH125J_MINLO_qqWWlvlv.deriv.DAOD_PHYSLITE.e5813_s3681_r13145_p6266
mc20_13TeV.345336.PowhegPythia8EvtGen_NNPDF3_AZNLO_ZH125J_MINLO_qqWWlvlv.deriv.DAOD_PHYSLITE.e5813_s3681_r13167_p6266
mc20_13TeV.346524.PowhegPythia8EvtGen_NNPDF3_AZNLO_ggZH125J_MINLO_ZinclWWlvlv.deriv.DAOD_PHYSLITE.e7523_s3681_r13144_p6266
mc20_13TeV.346524.PowhegPythia8EvtGen_NNPDF3_AZNLO_ggZH125J_MINLO_ZinclWWlvlv.deriv.DAOD_PHYSLITE.e7523_s3681_r13145_p6266
mc20_13TeV.346524.PowhegPythia8EvtGen_NNPDF3_AZNLO_ggZH125J_MINLO_ZinclWWlvlv.deriv.DAOD_PHYSLITE.e7523_s3681_r13167_p6266
mc20_13TeV.346343.PhPy8EG_A14NNPDF23_NNPDF30ME_ttH125_allhad.deriv.DAOD_PHYSLITE.e7148_s3681_r13144_p6266
mc20_13TeV.346343.PhPy8EG_A14NNPDF23_NNPDF30ME_ttH125_allhad.deriv.DAOD_PHYSLITE.e7148_s3681_r13145_p6266
mc20_13TeV.346343.PhPy8EG_A14NNPDF23_NNPDF30ME_ttH125_allhad.deriv.DAOD_PHYSLITE.e7148_s3681_r13167_p6266
mc20_13TeV.346344.PhPy8EG_A14NNPDF23_NNPDF30ME_ttH125_semilep.deriv.DAOD_PHYSLITE.e7148_s3681_r13144_p6266
mc20_13TeV.346344.PhPy8EG_A14NNPDF23_NNPDF30ME_ttH125_semilep.deriv.DAOD_PHYSLITE.e7148_s3681_r13145_p6266
mc20_13TeV.346344.PhPy8EG_A14NNPDF23_NNPDF30ME_ttH125_semilep.deriv.DAOD_PHYSLITE.e7148_s3681_r13167_p6266
mc20_13TeV.346345.PhPy8EG_A14NNPDF23_NNPDF30ME_ttH125_dilep.deriv.DAOD_PHYSLITE.e7148_s3681_r13144_p6266
mc20_13TeV.346345.PhPy8EG_A14NNPDF23_NNPDF30ME_ttH125_dilep.deriv.DAOD_PHYSLITE.e7148_s3681_r13145_p6266
mc20_13TeV.346345.PhPy8EG_A14NNPDF23_NNPDF30ME_ttH125_dilep.deriv.DAOD_PHYSLITE.e7148_s3681_r13167_p6266
mc20_13TeV.603887.PhPy8EG_NNLOPS_nnlo_30_ggH125_ZZllvv.deriv.DAOD_PHYSLITE.e8481_s3797_r13167_p6266
mc20_13TeV.603887.PhPy8EG_NNLOPS_nnlo_30_ggH125_ZZllvv.deriv.DAOD_PHYSLITE.e8481_s3797_r13144_p6266
mc20_13TeV.603887.PhPy8EG_NNLOPS_nnlo_30_ggH125_ZZllvv.deriv.DAOD_PHYSLITE.e8481_s3797_r13145_p6266
mc20_13TeV.603890.PhPy8EG_NNPDF3_ggZH125_ll_ZZllvv.deriv.DAOD_PHYSLITE.e8481_s3797_r13167_p6266
mc20_13TeV.603890.PhPy8EG_NNPDF3_ggZH125_ll_ZZllvv.deriv.DAOD_PHYSLITE.e8481_s3797_r13144_p6266
mc20_13TeV.603890.PhPy8EG_NNPDF3_ggZH125_ll_ZZllvv.deriv.DAOD_PHYSLITE.e8481_s3797_r13145_p6266
mc20_13TeV.603889.PhPy8EG_NNPDF3_ZH125J_MINLO_ll_ZZllvv_VpT.deriv.DAOD_PHYSLITE.e8481_s3797_r13167_p6266
mc20_13TeV.603889.PhPy8EG_NNPDF3_ZH125J_MINLO_ll_ZZllvv_VpT.deriv.DAOD_PHYSLITE.e8481_s3797_r13144_p6266
mc20_13TeV.603889.PhPy8EG_NNPDF3_ZH125J_MINLO_ll_ZZllvv_VpT.deriv.DAOD_PHYSLITE.e8481_s3797_r13145_p6266
