mc20_13TeV.701040.Sh_2214_llll.deriv.DAOD_PHYSLITE.e8547_s3797_r13144_p6026              
mc20_13TeV.701040.Sh_2214_llll.deriv.DAOD_PHYSLITE.e8547_s3797_r13145_p6026              
mc20_13TeV.701040.Sh_2214_llll.deriv.DAOD_PHYSLITE.e8547_s3797_r13167_p6026
mc20_13TeV.701045.Sh_2214_lllv.deriv.DAOD_PHYSLITE.e8547_s3797_r13144_p6026              
mc20_13TeV.701045.Sh_2214_lllv.deriv.DAOD_PHYSLITE.e8547_s3797_r13145_p6026              
mc20_13TeV.701045.Sh_2214_lllv.deriv.DAOD_PHYSLITE.e8547_s3797_r13167_p6026
mc20_13TeV.701050.Sh_2214_llvv_os.deriv.DAOD_PHYSLITE.e8547_s3797_r13144_p6026              
mc20_13TeV.701050.Sh_2214_llvv_os.deriv.DAOD_PHYSLITE.e8547_s3797_r13145_p6026              
mc20_13TeV.701050.Sh_2214_llvv_os.deriv.DAOD_PHYSLITE.e8547_s3797_r13167_p6026
mc20_13TeV.701055.Sh_2214_llvv_ss.deriv.DAOD_PHYSLITE.e8547_s3797_r13144_p6026              
mc20_13TeV.701055.Sh_2214_llvv_ss.deriv.DAOD_PHYSLITE.e8547_s3797_r13145_p6026              
mc20_13TeV.701055.Sh_2214_llvv_ss.deriv.DAOD_PHYSLITE.e8547_s3797_r13167_p6026
mc20_13TeV.701060.Sh_2214_lvvv.deriv.DAOD_PHYSLITE.e8547_s3797_r13144_p6026              
mc20_13TeV.701060.Sh_2214_lvvv.deriv.DAOD_PHYSLITE.e8547_s3797_r13145_p6026              
mc20_13TeV.701060.Sh_2214_lvvv.deriv.DAOD_PHYSLITE.e8547_s3797_r13167_p6026
mc20_13TeV.701065.Sh_2214_vvvv.deriv.DAOD_PHYSLITE.e8547_s3797_r13144_p6026              
mc20_13TeV.701065.Sh_2214_vvvv.deriv.DAOD_PHYSLITE.e8547_s3797_r13145_p6026              
mc20_13TeV.701065.Sh_2214_vvvv.deriv.DAOD_PHYSLITE.e8547_s3797_r13167_p6026
mc20_13TeV.701085.Sh_2214_ZqqZll.deriv.DAOD_PHYSLITE.e8547_s3797_r13144_p6026              
mc20_13TeV.701085.Sh_2214_ZqqZll.deriv.DAOD_PHYSLITE.e8547_s3797_r13145_p6026              
mc20_13TeV.701085.Sh_2214_ZqqZll.deriv.DAOD_PHYSLITE.e8547_s3797_r13167_p6026
mc20_13TeV.701090.Sh_2214_ZbbZll.deriv.DAOD_PHYSLITE.e8547_s3797_r13144_p6026              
mc20_13TeV.701090.Sh_2214_ZbbZll.deriv.DAOD_PHYSLITE.e8547_s3797_r13145_p6026              
mc20_13TeV.701090.Sh_2214_ZbbZll.deriv.DAOD_PHYSLITE.e8547_s3797_r13167_p6026
mc20_13TeV.701095.Sh_2214_ZqqZvv.deriv.DAOD_PHYSLITE.e8547_s3797_r13144_p6026              
mc20_13TeV.701095.Sh_2214_ZqqZvv.deriv.DAOD_PHYSLITE.e8547_s3797_r13145_p6026              
mc20_13TeV.701095.Sh_2214_ZqqZvv.deriv.DAOD_PHYSLITE.e8547_s3797_r13167_p6026
mc20_13TeV.701100.Sh_2214_ZbbZvv.deriv.DAOD_PHYSLITE.e8547_s3797_r13144_p6026              
mc20_13TeV.701100.Sh_2214_ZbbZvv.deriv.DAOD_PHYSLITE.e8547_s3797_r13145_p6026              
mc20_13TeV.701100.Sh_2214_ZbbZvv.deriv.DAOD_PHYSLITE.e8547_s3797_r13167_p6026
mc20_13TeV.701105.Sh_2214_WqqZll.deriv.DAOD_PHYSLITE.e8547_s3797_r13144_p6026              
mc20_13TeV.701105.Sh_2214_WqqZll.deriv.DAOD_PHYSLITE.e8547_s3797_r13145_p6026              
mc20_13TeV.701105.Sh_2214_WqqZll.deriv.DAOD_PHYSLITE.e8547_s3797_r13167_p6026
mc20_13TeV.701110.Sh_2214_WqqZvv.deriv.DAOD_PHYSLITE.e8547_s3797_r13144_p6026              
mc20_13TeV.701110.Sh_2214_WqqZvv.deriv.DAOD_PHYSLITE.e8547_s3797_r13145_p6026              
mc20_13TeV.701110.Sh_2214_WqqZvv.deriv.DAOD_PHYSLITE.e8547_s3797_r13167_p6026
mc20_13TeV.701115.Sh_2214_WlvZqq.deriv.DAOD_PHYSLITE.e8547_s3797_r13144_p6026              
mc20_13TeV.701115.Sh_2214_WlvZqq.deriv.DAOD_PHYSLITE.e8547_s3797_r13145_p6026              
mc20_13TeV.701115.Sh_2214_WlvZqq.deriv.DAOD_PHYSLITE.e8547_s3797_r13167_p6026
mc20_13TeV.701120.Sh_2214_WlvZbb.deriv.DAOD_PHYSLITE.e8547_s3797_r13144_p6026              
mc20_13TeV.701120.Sh_2214_WlvZbb.deriv.DAOD_PHYSLITE.e8547_s3797_r13145_p6026              
mc20_13TeV.701120.Sh_2214_WlvZbb.deriv.DAOD_PHYSLITE.e8547_s3797_r13167_p6026
mc20_13TeV.701125.Sh_2214_WlvWqq.deriv.DAOD_PHYSLITE.e8547_s3797_r13144_p6026              
mc20_13TeV.701125.Sh_2214_WlvWqq.deriv.DAOD_PHYSLITE.e8547_s3797_r13145_p6026              
mc20_13TeV.701125.Sh_2214_WlvWqq.deriv.DAOD_PHYSLITE.e8547_s3797_r13167_p6026
mc20_13TeV.345718.Sherpa_222_NNPDF30NNLO_ggllvvWW.deriv.DAOD_PHYSLITE.e6525_s3681_r13144_p6026
mc20_13TeV.345718.Sherpa_222_NNPDF30NNLO_ggllvvWW.deriv.DAOD_PHYSLITE.e6525_s3681_r13145_p6026
mc20_13TeV.345718.Sherpa_222_NNPDF30NNLO_ggllvvWW.deriv.DAOD_PHYSLITE.e6525_s3681_r13167_p6026
mc20_13TeV.345723.Sherpa_222_NNPDF30NNLO_ggllvvZZ.deriv.DAOD_PHYSLITE.e6213_s3681_r13144_p6026
mc20_13TeV.345723.Sherpa_222_NNPDF30NNLO_ggllvvZZ.deriv.DAOD_PHYSLITE.e6213_s3681_r13145_p6026
mc20_13TeV.345723.Sherpa_222_NNPDF30NNLO_ggllvvZZ.deriv.DAOD_PHYSLITE.e6213_s3681_r13167_p6026
mc20_13TeV.345705.Sherpa_222_NNPDF30NNLO_ggllll_0M4l130.deriv.DAOD_PHYSLITE.e6213_s3681_r13144_p6026
mc20_13TeV.345705.Sherpa_222_NNPDF30NNLO_ggllll_0M4l130.deriv.DAOD_PHYSLITE.e6213_s3681_r13145_p6026
mc20_13TeV.345705.Sherpa_222_NNPDF30NNLO_ggllll_0M4l130.deriv.DAOD_PHYSLITE.e6213_s3681_r13167_p6026
mc20_13TeV.345706.Sherpa_222_NNPDF30NNLO_ggllll_130M4l.deriv.DAOD_PHYSLITE.e6213_s3681_r13144_p6026
mc20_13TeV.345706.Sherpa_222_NNPDF30NNLO_ggllll_130M4l.deriv.DAOD_PHYSLITE.e6213_s3681_r13145_p6026
mc20_13TeV.345706.Sherpa_222_NNPDF30NNLO_ggllll_130M4l.deriv.DAOD_PHYSLITE.e6213_s3681_r13167_p6026
mc20_13TeV.345708.Sherpa_222_NNPDF30NNLO_ggllllNoHiggs_0M4l130.deriv.DAOD_PHYSLITE.e6213_s3681_r13144_p6026
mc20_13TeV.345708.Sherpa_222_NNPDF30NNLO_ggllllNoHiggs_0M4l130.deriv.DAOD_PHYSLITE.e6213_s3681_r13145_p6026
mc20_13TeV.345708.Sherpa_222_NNPDF30NNLO_ggllllNoHiggs_0M4l130.deriv.DAOD_PHYSLITE.e6213_s3681_r13167_p6026
mc20_13TeV.345709.Sherpa_222_NNPDF30NNLO_ggllllNoHiggs_130M4l.deriv.DAOD_PHYSLITE.e6213_s3681_r13144_p6026
mc20_13TeV.345709.Sherpa_222_NNPDF30NNLO_ggllllNoHiggs_130M4l.deriv.DAOD_PHYSLITE.e6213_s3681_r13145_p6026
mc20_13TeV.345709.Sherpa_222_NNPDF30NNLO_ggllllNoHiggs_130M4l.deriv.DAOD_PHYSLITE.e6213_s3681_r13167_p6026
