mc23_13p6TeV.525662.MGPy8EG_A14NNPDF23_tttw.deriv.DAOD_PHYSLITE.e8562_a910_r14932_p6491
mc23_13p6TeV.525662.MGPy8EG_A14NNPDF23_tttw.deriv.DAOD_PHYSLITE.e8562_a911_r15224_p6491


mc23_13p6TeV.525663.MGPy8EG_A14NNPDF23_tttj.deriv.DAOD_PHYSLITE.e8562_a910_r14932_p6491
mc23_13p6TeV.525663.MGPy8EG_A14NNPDF23_tttj.deriv.DAOD_PHYSLITE.e8562_a911_r15224_p6491
