mc20_13TeV.545639.aMCPy8EG_tWH125_gammagamma.deriv.DAOD_PHYSLITE.e8557_s3797_r13167_p6490
mc20_13TeV.545639.aMCPy8EG_tWH125_gammagamma.deriv.DAOD_PHYSLITE.e8557_s3797_r13144_p6490
mc20_13TeV.545639.aMCPy8EG_tWH125_gammagamma.deriv.DAOD_PHYSLITE.e8557_s3797_r13145_p6490
