mc23_13p6TeV.800923.Py8EG_A14NNPDF23LO_XHS_X250_S015_HyySbb.deriv.DAOD_PHYSLITE.e8557_s4159_r15530_p6266
mc23_13p6TeV.800923.Py8EG_A14NNPDF23LO_XHS_X250_S015_HyySbb.deriv.DAOD_PHYSLITE.e8557_s4162_r15540_p6266
mc23_13p6TeV.801359.Py8EG_A14NNPDF23LO_XHS_X1000_S70_HyySbb.deriv.DAOD_PHYSLITE.e8557_s4159_r15530_p6266
mc23_13p6TeV.801359.Py8EG_A14NNPDF23LO_XHS_X1000_S70_HyySbb.deriv.DAOD_PHYSLITE.e8557_s4162_r15540_p6266
mc23_13p6TeV.802147.Py8EG_A14NNPDF23LO_XHS_X575_S50_HyySbb.deriv.DAOD_PHYSLITE.e8557_s4159_r15530_p6266
mc23_13p6TeV.802147.Py8EG_A14NNPDF23LO_XHS_X575_S50_HyySbb.deriv.DAOD_PHYSLITE.e8557_s4162_r15540_p6266
