mc20_13TeV.600459.PhPy8EG_PDF4LHC15_HHbbttHadHad_cHHH01d0.deriv.DAOD_PHYS.e8273_s3681_r13144_p5855
mc20_13TeV.600459.PhPy8EG_PDF4LHC15_HHbbttHadHad_cHHH01d0.deriv.DAOD_PHYS.e8273_s3681_r13145_p5855
mc20_13TeV.600459.PhPy8EG_PDF4LHC15_HHbbttHadHad_cHHH01d0.deriv.DAOD_PHYS.e8273_s3681_r13167_p5855
mc20_13TeV.600461.PhPy8EG_PDF4LHC15_HHbbttLepHad_cHHH01d0.deriv.DAOD_PHYS.e8273_s3681_r13144_p5855
mc20_13TeV.600461.PhPy8EG_PDF4LHC15_HHbbttLepHad_cHHH01d0.deriv.DAOD_PHYS.e8273_s3681_r13145_p5855
mc20_13TeV.600461.PhPy8EG_PDF4LHC15_HHbbttLepHad_cHHH01d0.deriv.DAOD_PHYS.e8273_s3681_r13167_p5855
