mc20_13TeV.525955.aMCPy8EG_tWZ_Ztoll_DR1.deriv.DAOD_PHYS.e8553_a907_r14859_p6490
mc20_13TeV.525955.aMCPy8EG_tWZ_Ztoll_DR1.deriv.DAOD_PHYS.e8553_a907_r14860_p6490
mc20_13TeV.525955.aMCPy8EG_tWZ_Ztoll_DR1.deriv.DAOD_PHYS.e8553_a907_r14861_p6490

