#Note that some samples have newer p-tags. Keep in mind this when submitting
mc23_13p6TeV.513093.MGPy8EG_Wenu_FxFx3jHT2bias_SW_BFilter.deriv.DAOD_PHYS.e8514_s4159_r15224_p6266
mc23_13p6TeV.513093.MGPy8EG_Wenu_FxFx3jHT2bias_SW_BFilter.deriv.DAOD_PHYS.e8514_s4162_r14622_p6266
mc23_13p6TeV.513094.MGPy8EG_Wenu_FxFx3jHT2bias_SW_CFilterBVeto.deriv.DAOD_PHYS.e8514_s4159_r15224_p6266
mc23_13p6TeV.513094.MGPy8EG_Wenu_FxFx3jHT2bias_SW_CFilterBVeto.deriv.DAOD_PHYS.e8514_s4162_r14622_p6266
mc23_13p6TeV.513095.MGPy8EG_Wenu_FxFx3jHT2bias_SW_CVetoBVeto.deriv.DAOD_PHYS.e8514_s4162_r14622_p6266
mc23_13p6TeV.513095.MGPy8EG_Wenu_FxFx3jHT2bias_SW_CVetoBVeto.deriv.DAOD_PHYS.e8514_s4159_r15224_p6266
mc23_13p6TeV.513096.MGPy8EG_Wmunu_FxFx3jHT2bias_SW_BFilter.deriv.DAOD_PHYS.e8514_s4162_r14622_p6266
mc23_13p6TeV.513096.MGPy8EG_Wmunu_FxFx3jHT2bias_SW_BFilter.deriv.DAOD_PHYS.e8514_s4159_r15224_p6266
mc23_13p6TeV.513097.MGPy8EG_Wmunu_FxFx3jHT2bias_SW_CFilterBVeto.deriv.DAOD_PHYS.e8514_s4162_r14622_p6266
mc23_13p6TeV.513097.MGPy8EG_Wmunu_FxFx3jHT2bias_SW_CFilterBVeto.deriv.DAOD_PHYS.e8514_s4159_r15224_p6266
mc23_13p6TeV.513098.MGPy8EG_Wmunu_FxFx3jHT2bias_SW_CVetoBVeto.deriv.DAOD_PHYS.e8514_s4159_r15224_p6266
mc23_13p6TeV.513098.MGPy8EG_Wmunu_FxFx3jHT2bias_SW_CVetoBVeto.deriv.DAOD_PHYS.e8514_s4162_r14622_p6266
mc23_13p6TeV.513099.MGPy8EG_Wtaunu_L_FxFx3jHT2bias_SW_BFilter.deriv.DAOD_PHYS.e8514_s4159_r15224_p6266
mc23_13p6TeV.513099.MGPy8EG_Wtaunu_L_FxFx3jHT2bias_SW_BFilter.deriv.DAOD_PHYS.e8514_s4162_r14622_p6266
mc23_13p6TeV.513100.MGPy8EG_Wtaunu_L_FxFx3jHT2bias_SW_CFilterBVeto.deriv.DAOD_PHYS.e8514_s4162_r14622_p6266
mc23_13p6TeV.513100.MGPy8EG_Wtaunu_L_FxFx3jHT2bias_SW_CFilterBVeto.deriv.DAOD_PHYS.e8514_s4159_r15224_p6266
mc23_13p6TeV.513101.MGPy8EG_Wtaunu_L_FxFx3jHT2bias_SW_CVetoBVeto.deriv.DAOD_PHYS.e8514_s4159_r15224_p6266
mc23_13p6TeV.513101.MGPy8EG_Wtaunu_L_FxFx3jHT2bias_SW_CVetoBVeto.deriv.DAOD_PHYS.e8514_s4162_r14622_p6266
mc23_13p6TeV.513102.MGPy8EG_Wtaunu_H_FxFx3jHT2bias_SW_BFilter.deriv.DAOD_PHYS.e8514_s4162_r14622_p6266
mc23_13p6TeV.513102.MGPy8EG_Wtaunu_H_FxFx3jHT2bias_SW_BFilter.deriv.DAOD_PHYS.e8514_s4159_r15224_p6266
mc23_13p6TeV.513103.MGPy8EG_Wtaunu_H_FxFx3jHT2bias_SW_CFilterBVeto.deriv.DAOD_PHYS.e8514_s4162_r14622_p6266
mc23_13p6TeV.513103.MGPy8EG_Wtaunu_H_FxFx3jHT2bias_SW_CFilterBVeto.deriv.DAOD_PHYS.e8514_s4159_r15224_p6266
mc23_13p6TeV.513104.MGPy8EG_Wtaunu_H_FxFx3jHT2bias_SW_CVetoBVeto.deriv.DAOD_PHYS.e8514_s4162_r14622_p6266
mc23_13p6TeV.513104.MGPy8EG_Wtaunu_H_FxFx3jHT2bias_SW_CVetoBVeto.deriv.DAOD_PHYS.e8514_s4159_r15224_p6266
mc23_13p6TeV.513105.MGPy8EG_Zee_FxFx3jHT2bias_SW_BFilter.deriv.DAOD_PHYS.e8514_s4162_r14622_p6266
mc23_13p6TeV.513105.MGPy8EG_Zee_FxFx3jHT2bias_SW_BFilter.deriv.DAOD_PHYS.e8514_s4159_r15224_p6266
mc23_13p6TeV.513106.MGPy8EG_Zee_FxFx3jHT2bias_SW_CFilterBVeto.deriv.DAOD_PHYS.e8514_s4159_r15224_p6266
mc23_13p6TeV.513106.MGPy8EG_Zee_FxFx3jHT2bias_SW_CFilterBVeto.deriv.DAOD_PHYS.e8514_s4162_r14622_p6266
mc23_13p6TeV.513107.MGPy8EG_Zee_FxFx3jHT2bias_SW_CVetoBVeto.deriv.DAOD_PHYS.e8514_s4159_r15224_p6266
mc23_13p6TeV.513107.MGPy8EG_Zee_FxFx3jHT2bias_SW_CVetoBVeto.deriv.DAOD_PHYS.e8514_s4162_r14622_p6266
mc23_13p6TeV.513108.MGPy8EG_Zmumu_FxFx3jHT2bias_SW_BFilter.deriv.DAOD_PHYS.e8514_s4162_r14622_p6266
mc23_13p6TeV.513108.MGPy8EG_Zmumu_FxFx3jHT2bias_SW_BFilter.deriv.DAOD_PHYS.e8514_s4159_r15224_p6266
mc23_13p6TeV.513109.MGPy8EG_Zmumu_FxFx3jHT2bias_SW_CFilterBVeto.deriv.DAOD_PHYS.e8514_s4162_r14622_p6266
mc23_13p6TeV.513109.MGPy8EG_Zmumu_FxFx3jHT2bias_SW_CFilterBVeto.deriv.DAOD_PHYS.e8514_s4159_r15224_p6266
mc23_13p6TeV.513110.MGPy8EG_Zmumu_FxFx3jHT2bias_SW_CVetoBVeto.deriv.DAOD_PHYS.e8514_s4159_r15224_p6266
mc23_13p6TeV.513110.MGPy8EG_Zmumu_FxFx3jHT2bias_SW_CVetoBVeto.deriv.DAOD_PHYS.e8514_s4162_r14622_p6266
mc23_13p6TeV.513111.MGPy8EG_Ztautau_FxFx3jHT2bias_SW_BFilter.deriv.DAOD_PHYS.e8514_s4159_r15224_p6266
mc23_13p6TeV.513111.MGPy8EG_Ztautau_FxFx3jHT2bias_SW_BFilter.deriv.DAOD_PHYS.e8514_s4162_r14622_p6266
mc23_13p6TeV.513112.MGPy8EG_Ztautau_FxFx3jHT2bias_SW_CFilterBVeto.deriv.DAOD_PHYS.e8514_s4159_r15224_p6266
mc23_13p6TeV.513112.MGPy8EG_Ztautau_FxFx3jHT2bias_SW_CFilterBVeto.deriv.DAOD_PHYS.e8514_s4162_r14622_p6266
mc23_13p6TeV.513113.MGPy8EG_Ztautau_FxFx3jHT2bias_SW_CVetoBVeto.deriv.DAOD_PHYS.e8514_s4162_r14622_p6266
mc23_13p6TeV.513113.MGPy8EG_Ztautau_FxFx3jHT2bias_SW_CVetoBVeto.deriv.DAOD_PHYS.e8514_s4159_r15224_p6266
mc23_13p6TeV.601414.PhH7EG_A14_ttbar_hdamp258p75_Single_Lep.deriv.DAOD_PHYS.e8514_s4162_r15540_p6266
mc23_13p6TeV.601414.PhH7EG_A14_ttbar_hdamp258p75_Single_Lep.deriv.DAOD_PHYS.e8514_s4159_r15530_p6491
mc23_13p6TeV.601415.PhH7EG_A14_ttbar_hdamp258p75_Dilep.deriv.DAOD_PHYS.e8514_s4162_r15540_p6266
mc23_13p6TeV.601415.PhH7EG_A14_ttbar_hdamp258p75_Dilep.deriv.DAOD_PHYS.e8514_s4159_r15530_p6491
mc23_13p6TeV.601497.PhPy8EG_A14_ttbar_pThard1_singlelep.deriv.DAOD_PHYS.e8549_s4162_r14622_p6266
mc23_13p6TeV.601497.PhPy8EG_A14_ttbar_pThard1_singlelep.deriv.DAOD_PHYS.e8549_s4159_r15224_p6266
mc23_13p6TeV.601495.PhPy8EG_A14_ttbar_pThard1_allhad.deriv.DAOD_PHYS.e8558_e8586_s4369_s4370_r16083_r15970_p6522
mc23_13p6TeV.601495.PhPy8EG_A14_ttbar_pThard1_allhad.deriv.DAOD_PHYS.e8558_s4369_r16083_p6522
mc23_13p6TeV.601491.PhPy8EG_A14_ttbar_pThard1_dil.deriv.DAOD_PHYS.e8549_s4162_r14622_p6266
mc23_13p6TeV.601491.PhPy8EG_A14_ttbar_pThard1_dil.deriv.DAOD_PHYS.e8549_s4159_r15224_p6266
mc23_13p6TeV.601398.PhPy8EG_A14_ttbar_hdamp517p5_SingleLep.deriv.DAOD_PHYS.e8514_s4159_r15530_p6266
mc23_13p6TeV.601398.PhPy8EG_A14_ttbar_hdamp517p5_SingleLep.deriv.DAOD_PHYS.e8514_s4162_r15540_p6266
mc23_13p6TeV.601399.PhPy8EG_A14_ttbar_hdamp517p5_dil.deriv.DAOD_PHYS.e8514_s4159_r15530_p6266
mc23_13p6TeV.601399.PhPy8EG_A14_ttbar_hdamp517p5_dil.deriv.DAOD_PHYS.e8514_s4162_r15540_p6266
mc23_13p6TeV.601456.PhPy8EG_tW_dyn_hdamp517p5_DR_dil_antitop.deriv.DAOD_PHYS.e8551_s4162_r14622_p6266
mc23_13p6TeV.601456.PhPy8EG_tW_dyn_hdamp517p5_DR_dil_antitop.deriv.DAOD_PHYS.e8551_s4159_r15224_p6266
mc23_13p6TeV.601458.PhPy8EG_tW_dyn_hdamp517p5_DR_dil_top.deriv.DAOD_PHYS.e8551_s4159_r15224_p6266
mc23_13p6TeV.601458.PhPy8EG_tW_dyn_hdamp517p5_DR_dil_top.deriv.DAOD_PHYS.e8551_s4162_r14622_p6266
mc23_13p6TeV.601460.PhPy8EG_tW_dyn_hdamp517p5_DR_incl_antitop.deriv.DAOD_PHYS.e8551_s4159_r15224_p6266
mc23_13p6TeV.601460.PhPy8EG_tW_dyn_hdamp517p5_DR_incl_antitop.deriv.DAOD_PHYS.e8551_s4162_r14622_p6266
mc23_13p6TeV.601462.PhPy8EG_tW_dyn_hdamp517p5_DR_incl_top.deriv.DAOD_PHYS.e8551_s4159_r15224_p6266
mc23_13p6TeV.601462.PhPy8EG_tW_dyn_hdamp517p5_DR_incl_top.deriv.DAOD_PHYS.e8551_s4162_r14622_p6266
mc23_13p6TeV.601624.PhPy8EG_tW_DS_dyn_dil_antitop.deriv.DAOD_PHYS.e8549_s4159_r15224_p6266
mc23_13p6TeV.601624.PhPy8EG_tW_DS_dyn_dil_antitop.deriv.DAOD_PHYS.e8549_s4162_r14622_p6266
mc23_13p6TeV.601627.PhPy8EG_tW_DS_dyn_incl_antitop.deriv.DAOD_PHYS.e8549_s4159_r15224_p6266
mc23_13p6TeV.601627.PhPy8EG_tW_DS_dyn_incl_antitop.deriv.DAOD_PHYS.e8549_s4162_r14622_p6266
mc23_13p6TeV.601628.PhPy8EG_tW_DS_dyn_dil_top.deriv.DAOD_PHYS.e8549_s4162_r14622_p6266
mc23_13p6TeV.601628.PhPy8EG_tW_DS_dyn_dil_top.deriv.DAOD_PHYS.e8549_s4159_r15224_p6266
mc23_13p6TeV.601631.PhPy8EG_tW_DS_dyn_incl_top.deriv.DAOD_PHYS.e8549_s4162_r14622_p6266
mc23_13p6TeV.601631.PhPy8EG_tW_DS_dyn_incl_top.deriv.DAOD_PHYS.e8549_s4159_r15224_p6266
mc23_13p6TeV.602235.PhH7EG_tW_dyn_DR_incl_top.deriv.DAOD_PHYS.e8551_a910_r15540_p6491
mc23_13p6TeV.602235.PhH7EG_tW_dyn_DR_incl_top.deriv.DAOD_PHYS.e8551_a911_r15530_p6491
mc23_13p6TeV.602236.PhH7EG_tW_dyn_DR_incl_antitop.deriv.DAOD_PHYS.e8551_a911_r15530_p6491
mc23_13p6TeV.602236.PhH7EG_tW_dyn_DR_incl_antitop.deriv.DAOD_PHYS.e8551_a910_r15540_p6491
mc23_13p6TeV.602237.PhH7EG_tW_dyn_DR_dil_top.deriv.DAOD_PHYS.e8551_a911_r15530_p6491
mc23_13p6TeV.602237.PhH7EG_tW_dyn_DR_dil_top.deriv.DAOD_PHYS.e8551_a910_r15540_p6491
mc23_13p6TeV.602238.PhH7EG_tW_dyn_DR_dil_antitop.deriv.DAOD_PHYS.e8551_a911_r15530_p6491
mc23_13p6TeV.602238.PhH7EG_tW_dyn_DR_dil_antitop.deriv.DAOD_PHYS.e8551_a910_r15540_p6491
