#mc20_13TeV.506202.MGPy8_ssWWjj_lep_EW6_LO.deriv.DAOD_PHYS.e8381_s3681_r13144_p6266
#mc20_13TeV.506202.MGPy8_ssWWjj_lep_EW6_LO.deriv.DAOD_PHYS.e8381_s3681_r13145_p6266
mc20_13TeV.506202.MGPy8_ssWWjj_lep_EW6_LO.deriv.DAOD_PHYS.e8381_s3681_r13167_p6266

#mc20_13TeV.506207.MGPy8_ssWWjj_lep_TT_EW6_LO.deriv.DAOD_PHYS.e8381_s3681_r13144_p6266
#mc20_13TeV.506207.MGPy8_ssWWjj_lep_TT_EW6_LO.deriv.DAOD_PHYS.e8381_s3681_r13145_p6266
mc20_13TeV.506207.MGPy8_ssWWjj_lep_TT_EW6_LO.deriv.DAOD_PHYS.e8381_s3681_r13167_p6266

#mc20_13TeV.506201.MGPy8_ssWWjj_lep_TT_EW6_WWcmf_LO.deriv.DAOD_PHYS.e8381_s3681_r13144_p6266
#mc20_13TeV.506201.MGPy8_ssWWjj_lep_TT_EW6_WWcmf_LO.deriv.DAOD_PHYS.e8381_s3681_r13145_p6266
mc20_13TeV.506201.MGPy8_ssWWjj_lep_TT_EW6_WWcmf_LO.deriv.DAOD_PHYS.e8381_s3681_r13167_p6266

#mc20_13TeV.506203.MGPy8_ssWWjj_lep_LL_EW6_LO.deriv.DAOD_PHYS.e8381_s3681_r13144_p6266
#mc20_13TeV.506203.MGPy8_ssWWjj_lep_LL_EW6_LO.deriv.DAOD_PHYS.e8381_s3681_r13145_p6266
mc20_13TeV.506203.MGPy8_ssWWjj_lep_LL_EW6_LO.deriv.DAOD_PHYS.e8381_s3681_r13167_p6266

#mc20_13TeV.506204.MGPy8_ssWWjj_lep_LL_EW6_WWcmf_LO.deriv.DAOD_PHYS.e8381_s3681_r13144_p6266
#mc20_13TeV.506204.MGPy8_ssWWjj_lep_LL_EW6_WWcmf_LO.deriv.DAOD_PHYS.e8381_s3681_r13145_p6266
mc20_13TeV.506204.MGPy8_ssWWjj_lep_LL_EW6_WWcmf_LO.deriv.DAOD_PHYS.e8381_s3681_r13167_p6266

#mc20_13TeV.506205.MGPy8_ssWWjj_lep_TL_EW6_LO.deriv.DAOD_PHYS.e8381_s3681_r13144_p6266
#mc20_13TeV.506205.MGPy8_ssWWjj_lep_TL_EW6_LO.deriv.DAOD_PHYS.e8381_s3681_r13145_p6266
mc20_13TeV.506205.MGPy8_ssWWjj_lep_TL_EW6_LO.deriv.DAOD_PHYS.e8381_s3681_r13167_p6266

#mc20_13TeV.506206.MGPy8_ssWWjj_lep_TL_EW6_WWcmf_LO.deriv.DAOD_PHYS.e8381_s3681_r13144_p6266
#mc20_13TeV.506206.MGPy8_ssWWjj_lep_TL_EW6_WWcmf_LO.deriv.DAOD_PHYS.e8381_s3681_r13145_p6266
mc20_13TeV.506206.MGPy8_ssWWjj_lep_TL_EW6_WWcmf_LO.deriv.DAOD_PHYS.e8381_s3681_r13167_p6266
