mc23_13p6TeV.602421.PhPy8EG_PDF4LHC21_ggH_NNLOPS_gammagamma.deriv.DAOD_PHYS.e8559_s4369_r16083_p6522
mc23_13p6TeV.601482.PhPy8EG_PDF4LHC21_VBFH125_gammagamma.deriv.DAOD_PHYS.e8559_s4369_r16083_p6522
mc23_13p6TeV.601483.PhPy8EG_PDF4LHC21_WmH125J_Wincl_MINLO_gammagamma.deriv.DAOD_PHYS.e8559_s4369_r16083_p6522
mc23_13p6TeV.601484.PhPy8EG_PDF4LHC21_WpH125J_Wincl_MINLO_gammagamma.deriv.DAOD_PHYS.e8559_s4369_r16083_p6522
mc23_13p6TeV.601523.PhPy8EG_PDF4LHC21_ZH125J_Zincl_MINLO_gammagamma.deriv.DAOD_PHYS.e8559_s4369_r16083_p6522
mc23_13p6TeV.601522.PhPy8EG_PDF4LHC21_ggZH125_Zincl_gammagamma.deriv.DAOD_PHYS.e8559_s4369_r16083_p6522
mc23_13p6TeV.602422.PhPy8EG_PDF4LHC21_ttH125_tincl_gammagamma_1file.deriv.DAOD_PHYS.e8559_s4369_r16083_p6522
mc23_13p6TeV.601710.PhPy8EG_PDF4LHC21_4FS_A14NNPDF_bbH_gammagamma.deriv.DAOD_PHYS.e8559_s4369_r16083_p6522
