mc20_13TeV.701085.Sh_2214_ZqqZll.deriv.DAOD_PHYS.e8547_s3797_r13144_p6266              
mc20_13TeV.701085.Sh_2214_ZqqZll.deriv.DAOD_PHYS.e8547_s3797_r13145_p6266              
mc20_13TeV.701085.Sh_2214_ZqqZll.deriv.DAOD_PHYS.e8547_s3797_r13167_p6266
mc20_13TeV.701090.Sh_2214_ZbbZll.deriv.DAOD_PHYS.e8547_s3797_r13144_p6266              
mc20_13TeV.701090.Sh_2214_ZbbZll.deriv.DAOD_PHYS.e8547_s3797_r13145_p6266              
mc20_13TeV.701090.Sh_2214_ZbbZll.deriv.DAOD_PHYS.e8547_s3797_r13167_p6266
mc20_13TeV.701105.Sh_2214_WqqZll.deriv.DAOD_PHYS.e8547_s3797_r13144_p6266              
mc20_13TeV.701105.Sh_2214_WqqZll.deriv.DAOD_PHYS.e8547_s3797_r13145_p6266              
mc20_13TeV.701105.Sh_2214_WqqZll.deriv.DAOD_PHYS.e8547_s3797_r13167_p6266
